{
  "group": "net.maybemc",
  "name": "sylas",
  "version": "1.0.0",
  "author": "Nico_ND1",
  "main": "net.maybemc.sylas.SylasCloudModule",
  "properties": {
    "test_property_for_runtime": "foo bar"
  },
  "dataFolder": "sylas",
  "dependencies": [
    {
      "group": "net.maybemc",
      "name": "meybee",
      "version": "1.0.0"
    }
  ],
  "repos": []
}
